{"count":200,"next":"https://cryptopanic.com/api/v1/posts/?auth_token=930eab98dad295ee1024e02ec2e13b906d89fb42&public=true&filter=hot&kind=news&page=2","previous":null,"results":[{"kind":"news","domain":"theblockcrypto.com","votes":{"negative":0,"positive":6,"important":3,"liked":7,"disliked":0,"lol":0,"toxic":0,"saved":2,"comments":0},"source":{"title":"The Block","region":"en","domain":"theblockcrypto.com","path":null},"title":"Elon Musk floats crypto payments during meeting with Twitter employees","published_at":"2022-06-16T21:23:51Z","slug":"Elon-Musk-floats-crypto-payments-during-meeting-with-Twitter-employees","id":15518650,"url":"https://cryptopanic.com/news/15518650/Elon-Musk-floats-crypto-payments-during-meeting-with-Twitter-employees","created_at":"2022-06-16T21:23:51Z"},{"kind":"news","domain":"zycrypto.com","votes":{"negative":2,"positive":5,"important":2,"liked":1,"disliked":1,"lol":1,"toxic":0,"saved":1,"comments":0},"source":{"title":"ZyCrypto","region":"en","domain":"zycrypto.com","path":null},"title":"“We’ve Been Preparing For This,” Ripple CEO Reveals Huge Growth And Hiring Plans Despite The Crypto Winter","published_at":"2022-06-16T19:36:59Z","slug":"Weve-Been-Preparing-For-This-Ripple-CEO-Reveals-Huge-Growth-And-Hiring-Plans-Despite-The-Crypto-Winter","currencies":[{"code":"XRP","title":"XRP","slug":"ripple","url":"https://cryptopanic.com/news/ripple/"}],"id":15518410,"url":"https://cryptopanic.com/news/15518410/Weve-Been-Preparing-For-This-Ripple-CEO-Reveals-Huge-Growth-And-Hiring-Plans-Despite-The-Crypto-Winter","created_at":"2022-06-16T19:36:59Z"},{"kind":"news","domain":"theblockcrypto.com","votes":{"negative":4,"positive":8,"important":7,"liked":9,"disliked":3,"lol":11,"toxic":0,"saved":2,"comments":5},"source":{"title":"The Block","region":"en","domain":"theblockcrypto.com","path":null},"title":"Tesla CEO Elon Musk accused of dogecoin Ponzi scheme in new class action lawsuit","published_at":"2022-06-16T18:13:28Z","slug":"Tesla-CEO-Elon-Musk-accused-of-dogecoin-Ponzi-scheme-in-new-class-action-lawsuit","currencies":[{"code":"DOGE","title":"Dogecoin","slug":"dogecoin","url":"https://cryptopanic.com/news/dogecoin/"}],"id":15518171,"url":"https://cryptopanic.com/news/15518171/Tesla-CEO-Elon-Musk-accused-of-dogecoin-Ponzi-scheme-in-new-class-action-lawsuit","created_at":"2022-06-16T18:13:28Z"},{"kind":"news","domain":"finbold.com","votes":{"negative":3,"positive":51,"important":25,"liked":36,"disliked":3,"lol":8,"toxic":0,"saved":6,"comments":12},"source":{"title":"Finbold","region":"en","domain":"finbold.com","path":null},"title":"SEC Commissioner affirms it’s time to stop denying crypto spot ETFs","published_at":"2022-06-16T16:46:23Z","slug":"SEC-Commissioner-affirms-its-time-to-stop-denying-crypto-spot-ETFs","currencies":[{"code":"BTC","title":"Bitcoin","slug":"bitcoin","url":"https://cryptopanic.com/news/bitcoin/"}],"id":15517865,"url":"https://cryptopanic.com/news/15517865/SEC-Commissioner-affirms-its-time-to-stop-denying-crypto-spot-ETFs","created_at":"2022-06-16T16:46:23Z"},{"kind":"news","domain":"bitcoinmagazine.com","votes":{"negative":0,"positive":7,"important":6,"liked":6,"disliked":0,"lol":1,"toxic":0,"saved":1,"comments":0},"source":{"title":"Bitcoin Magazine","region":"en","domain":"bitcoinmagazine.com","path":null},"title":"SEC Commissioner: The Regulatory Agency Should ‘Stop Denying’ Spot Bitcoin ETFs","published_at":"2022-06-16T16:15:56Z","slug":"SEC-Commissioner-The-Regulatory-Agency-Should-Stop-Denying-Spot-Bitcoin-ETFs","currencies":[{"code":"BTC","title":"Bitcoin","slug":"bitcoin","url":"https://cryptopanic.com/news/bitcoin/"}],"id":15517748,"url":"https://cryptopanic.com/news/15517748/SEC-Commissioner-The-Regulatory-Agency-Should-Stop-Denying-Spot-Bitcoin-ETFs","created_at":"2022-06-16T16:15:56Z"},{"kind":"news","domain":"cryptopotato.com","votes":{"negative":4,"positive":2,"important":9,"liked":2,"disliked":2,"lol":3,"toxic":0,"saved":1,"comments":1},"source":{"title":"Feed - Cryptopotato.Com","region":"en","domain":"cryptopotato.com","path":null},"title":"TRON DAO Reserve to Withdraw Another 3 Billion TRX to Protect USDD Peg","published_at":"2022-06-16T15:38:38Z","slug":"TRON-DAO-Reserve-to-Withdraw-Another-3-Billion-TRX-to-Protect-USDD-Peg","currencies":[{"code":"TRX","title":"TRON","slug":"tron","url":"https://cryptopanic.com/news/tron/"},{"code":"USDD","title":"USDD","slug":"usdd","url":"https://cryptopanic.com/news/usdd/"}],"id":15517610,"url":"https://cryptopanic.com/news/15517610/TRON-DAO-Reserve-to-Withdraw-Another-3-Billion-TRX-to-Protect-USDD-Peg","created_at":"2022-06-16T15:38:38Z"},{"kind":"news","domain":"zycrypto.com","votes":{"negative":7,"positive":9,"important":9,"liked":6,"disliked":3,"lol":5,"toxic":0,"saved":1,"comments":2},"source":{"title":"ZyCrypto","region":"en","domain":"zycrypto.com","path":null},"title":"Cardano, Solana, Tron, And Dogecoin Chart Stunning Relief Rally After Biggest Rate Hike In 28 Years","published_at":"2022-06-16T15:30:59Z","slug":"Cardano-Solana-Tron-And-Dogecoin-Chart-Stunning-Relief-Rally-After-Biggest-Rate-Hike-In-28-Years","currencies":[{"code":"ADA","title":"Cardano","slug":"cardano","url":"https://cryptopanic.com/news/cardano/"},{"code":"SOL","title":"Solana","slug":"solana","url":"https://cryptopanic.com/news/solana/"},{"code":"DOGE","title":"Dogecoin","slug":"dogecoin","url":"https://cryptopanic.com/news/dogecoin/"},{"code":"TRX","title":"TRON","slug":"tron","url":"https://cryptopanic.com/news/tron/"}],"id":15517596,"url":"https://cryptopanic.com/news/15517596/Cardano-Solana-Tron-And-Dogecoin-Chart-Stunning-Relief-Rally-After-Biggest-Rate-Hike-In-28-Years","created_at":"2022-06-16T15:30:59Z"},{"kind":"news","domain":"finbold.com","votes":{"negative":8,"positive":2,"important":6,"liked":6,"disliked":6,"lol":7,"toxic":0,"saved":3,"comments":7},"source":{"title":"Finbold","region":"en","domain":"finbold.com","path":null},"title":"Vitalik Buterin rules out the possibility of global crypto dominance","published_at":"2022-06-16T15:23:09Z","slug":"Vitalik-Buterin-rules-out-the-possibility-of-global-crypto-dominance","currencies":[{"code":"ETH","title":"Ethereum","slug":"ethereum","url":"https://cryptopanic.com/news/ethereum/"}],"id":15517582,"url":"https://cryptopanic.com/news/15517582/Vitalik-Buterin-rules-out-the-possibility-of-global-crypto-dominance","created_at":"2022-06-16T15:23:09Z"},{"kind":"news","domain":"finbold.com","votes":{"negative":3,"positive":0,"important":6,"liked":2,"disliked":2,"lol":4,"toxic":0,"saved":3,"comments":4},"source":{"title":"Finbold","region":"en","domain":"finbold.com","path":null},"title":"U.S. town residents push back against world’s largest Bitcoin mining facility due to fears of increased bills","published_at":"2022-06-16T15:11:51Z","slug":"US-town-residents-push-back-against-worlds-largest-Bitcoin-mining-facility-due-to-fears-of-increased-bills","currencies":[{"code":"BTC","title":"Bitcoin","slug":"bitcoin","url":"https://cryptopanic.com/news/bitcoin/"}],"id":15517549,"url":"https://cryptopanic.com/news/15517549/US-town-residents-push-back-against-worlds-largest-Bitcoin-mining-facility-due-to-fears-of-increased-bills","created_at":"2022-06-16T15:11:51Z"},{"kind":"news","domain":"bitcoinist.com","votes":{"negative":2,"positive":5,"important":3,"liked":4,"disliked":2,"lol":4,"toxic":0,"saved":0,"comments":7},"source":{"title":"Bitcoinist","region":"en","domain":"bitcoinist.com","path":null},"title":"Bitcoin Could Hit $100K By Yearend, Majority Of Fund Managers Predict, Based On Survey","published_at":"2022-06-16T14:30:21Z","slug":"Bitcoin-Could-Hit-100K-By-Yearend-Majority-Of-Fund-Managers-Predict-Based-On-Survey","currencies":[{"code":"BTC","title":"Bitcoin","slug":"bitcoin","url":"https://cryptopanic.com/news/bitcoin/"}],"id":15517380,"url":"https://cryptopanic.com/news/15517380/Bitcoin-Could-Hit-100K-By-Yearend-Majority-Of-Fund-Managers-Predict-Based-On-Survey","created_at":"2022-06-16T14:30:21Z"},{"kind":"news","domain":"finbold.com","votes":{"negative":2,"positive":9,"important":6,"liked":7,"disliked":2,"lol":4,"toxic":0,"saved":5,"comments":0},"source":{"title":"Finbold","region":"en","domain":"finbold.com","path":null},"title":"Bitcoin whales wake up from ‘winter nap’ to buy the dip as inflow activity hits a 4-month high","published_at":"2022-06-16T14:22:10Z","slug":"Bitcoin-whales-wake-up-from-winter-nap-to-buy-the-dip-as-inflow-activity-hits-a-4-month-high","currencies":[{"code":"BTC","title":"Bitcoin","slug":"bitcoin","url":"https://cryptopanic.com/news/bitcoin/"}],"id":15517351,"url":"https://cryptopanic.com/news/15517351/Bitcoin-whales-wake-up-from-winter-nap-to-buy-the-dip-as-inflow-activity-hits-a-4-month-high","created_at":"2022-06-16T14:22:10Z"},{"kind":"news","domain":"u.today","votes":{"negative":3,"positive":7,"important":4,"liked":8,"disliked":3,"lol":3,"toxic":0,"saved":0,"comments":1},"source":{"title":"U.Today","region":"en","domain":"u.today","path":null},"title":"Binance CEO Is Ready to Support Elon Musk's Twitter Purchase Endeavor","published_at":"2022-06-16T14:03:00Z","slug":"Binance-CEO-Is-Ready-to-Support-Elon-Musks-Twitter-Purchase-Endeavor","id":15517286,"url":"https://cryptopanic.com/news/15517286/Binance-CEO-Is-Ready-to-Support-Elon-Musks-Twitter-Purchase-Endeavor","created_at":"2022-06-16T14:03:00Z"},{"kind":"news","domain":"theblockcrypto.com","votes":{"negative":2,"positive":12,"important":7,"liked":6,"disliked":1,"lol":4,"toxic":0,"saved":4,"comments":4},"source":{"title":"The Block","region":"en","domain":"theblockcrypto.com","path":null},"title":"Tron DAO to withdraw another 3 billion TRX from exchanges","published_at":"2022-06-16T13:50:07Z","slug":"Tron-DAO-to-withdraw-another-3-billion-TRX-from-exchanges","currencies":[{"code":"TRX","title":"TRON","slug":"tron","url":"https://cryptopanic.com/news/tron/"}],"id":15517202,"url":"https://cryptopanic.com/news/15517202/Tron-DAO-to-withdraw-another-3-billion-TRX-from-exchanges","created_at":"2022-06-16T13:50:07Z"},{"kind":"news","domain":"u.today","votes":{"negative":1,"positive":21,"important":10,"liked":21,"disliked":1,"lol":7,"toxic":0,"saved":3,"comments":7},"source":{"title":"U.Today","region":"en","domain":"u.today","path":null},"title":"Kiss Singer Gene Simmons Claims He Hasn't Sold His Litecoin and 13 Other Crypto Holdings","published_at":"2022-06-16T13:18:00Z","slug":"Kiss-Singer-Gene-Simmons-Claims-He-Hasnt-Sold-His-Litecoin-and-13-Other-Crypto-Holdings","currencies":[{"code":"LTC","title":"Litecoin","slug":"litecoin","url":"https://cryptopanic.com/news/litecoin/"}],"id":15517112,"url":"https://cryptopanic.com/news/15517112/Kiss-Singer-Gene-Simmons-Claims-He-Hasnt-Sold-His-Litecoin-and-13-Other-Crypto-Holdings","created_at":"2022-06-16T13:18:00Z"},{"kind":"news","domain":"cointelegraph.com","votes":{"negative":1,"positive":40,"important":25,"liked":36,"disliked":4,"lol":8,"toxic":0,"saved":10,"comments":12},"source":{"title":"CoinTelegraph","region":"en","domain":"cointelegraph.com","path":null},"title":"Banking uses 56 times more energy than Bitcoin: Valuechain report","published_at":"2022-06-16T13:16:31Z","slug":"Banking-uses-56-times-more-energy-than-Bitcoin-Valuechain-report","currencies":[{"code":"BTC","title":"Bitcoin","slug":"bitcoin","url":"https://cryptopanic.com/news/bitcoin/"}],"id":15517106,"url":"https://cryptopanic.com/news/15517106/Banking-uses-56-times-more-energy-than-Bitcoin-Valuechain-report","created_at":"2022-06-16T13:16:31Z"},{"kind":"news","domain":"finbold.com","votes":{"negative":1,"positive":25,"important":10,"liked":17,"disliked":1,"lol":4,"toxic":0,"saved":5,"comments":0},"source":{"title":"Finbold","region":"en","domain":"finbold.com","path":null},"title":"Spain’s largest airline Vueling adopts Bitcoin as a payment method for tickets","published_at":"2022-06-16T13:00:35Z","slug":"Spains-largest-airline-Vueling-adopts-Bitcoin-as-a-payment-method-for-tickets","currencies":[{"code":"BTC","title":"Bitcoin","slug":"bitcoin","url":"https://cryptopanic.com/news/bitcoin/"}],"id":15517070,"url":"https://cryptopanic.com/news/15517070/Spains-largest-airline-Vueling-adopts-Bitcoin-as-a-payment-method-for-tickets","created_at":"2022-06-16T13:00:35Z"},{"kind":"news","domain":"finbold.com","votes":{"negative":8,"positive":0,"important":8,"liked":4,"disliked":5,"lol":8,"toxic":0,"saved":3,"comments":2},"source":{"title":"Finbold","region":"en","domain":"finbold.com","path":null},"title":"IRS launches ‘Operation Hidden Treasure’ to clamp down on crypto non-taxpayers","published_at":"2022-06-16T12:36:50Z","slug":"IRS-launches-Operation-Hidden-Treasure-to-clamp-down-on-crypto-non-taxpayers","currencies":[{"code":"BTC","title":"Bitcoin","slug":"bitcoin","url":"https://cryptopanic.com/news/bitcoin/"},{"code":"ETH","title":"Ethereum","slug":"ethereum","url":"https://cryptopanic.com/news/ethereum/"}],"id":15516950,"url":"https://cryptopanic.com/news/15516950/IRS-launches-Operation-Hidden-Treasure-to-clamp-down-on-crypto-non-taxpayers","created_at":"2022-06-16T12:36:50Z"},{"kind":"news","domain":"finbold.com","votes":{"negative":1,"positive":9,"important":8,"liked":13,"disliked":0,"lol":2,"toxic":0,"saved":3,"comments":1},"source":{"title":"Finbold","region":"en","domain":"finbold.com","path":null},"title":"Richest person in crypto says current correction is ‘normal market behavior’","published_at":"2022-06-16T11:42:35Z","slug":"Richest-person-in-crypto-says-current-correction-is-normal-market-behavior","currencies":[{"code":"BTC","title":"Bitcoin","slug":"bitcoin","url":"https://cryptopanic.com/news/bitcoin/"}],"id":15516787,"url":"https://cryptopanic.com/news/15516787/Richest-person-in-crypto-says-current-correction-is-normal-market-behavior","created_at":"2022-06-16T11:42:35Z"},{"kind":"news","domain":"u.today","votes":{"negative":3,"positive":16,"important":7,"liked":13,"disliked":3,"lol":5,"toxic":0,"saved":1,"comments":0},"source":{"title":"U.Today","region":"en","domain":"u.today","path":null},"title":"Cardano Onboards Native CDN for Non-Fungible Tokens","published_at":"2022-06-16T10:51:00Z","slug":"Cardano-Onboards-Native-CDN-for-Non-Fungible-Tokens","currencies":[{"code":"ADA","title":"Cardano","slug":"cardano","url":"https://cryptopanic.com/news/cardano/"}],"id":15516652,"url":"https://cryptopanic.com/news/15516652/Cardano-Onboards-Native-CDN-for-Non-Fungible-Tokens","created_at":"2022-06-16T10:51:00Z"},{"kind":"news","domain":"cointelegraph.com","votes":{"negative":0,"positive":7,"important":3,"liked":5,"disliked":0,"lol":0,"toxic":0,"saved":2,"comments":0},"source":{"title":"CoinTelegraph","region":"en","domain":"cointelegraph.com","path":null},"title":"Kazakhstan to let crypto exchanges open bank accounts","published_at":"2022-06-16T10:28:49Z","slug":"Kazakhstan-to-let-crypto-exchanges-open-bank-accounts","currencies":[{"code":"BTC","title":"Bitcoin","slug":"bitcoin","url":"https://cryptopanic.com/news/bitcoin/"}],"id":15516618,"url":"https://cryptopanic.com/news/15516618/Kazakhstan-to-let-crypto-exchanges-open-bank-accounts","created_at":"2022-06-16T10:28:49Z"}]}